{
  "dependencies": {
    "libraries": []
  },
  "dataStudio": {
    "name": "DataBox API request",
    "logoUrl": "https://raw.githubusercontent.com/npm/logos/master/npm%20square/n-64.png",
    "company": "UniSoma Computação Ltda",
    "companyUrl": "http://www.unisoma.com",
    "addonUrl": "https://bitbucket.org/unisoma/unisoma.databox.serving/src/develop/#readme",
    "supportUrl": "https://bitbucket.org/unisoma/unisoma.databox.serving/src/develop/",
    "description": "Collect data from UniSoma DataBOX using REST API requests.",
    "sources": ["npm"],
    "templates": {
      "default": "xxxxxxxx"
    }
  },
  "oauthScopes": [
    "https://www.googleapis.com/auth/script.external_request"
  ]
}